{
  "openapi": "3.0.0",
  "info": {
    "title": "...",
    "description": "...",
    "contact": {
      "url": "https://www.linkedin.com/in/iago-f-s-e/",
      "email": "iago.fagundes@outlook.com"
    },
    "version": "0.0.1"
  },
  "tags": [],
  "paths": {},
  "components": {}
}